MADA Project Part 2
…
#The last 3 columns have missing data. However, they are not important for the purposes of this project
# there is not a need to delete the records
#However, we will delete the columns

trap_location_selected <- trap_location %>%
  select(`Trap Site Address`, MCD, Location, DecLat, DecLong)
trap_location_selected

# A tibble: 152 × 5
   `Trap Site Address`               MCD     Location             DecLat DecLong
   <chr>                             <chr>   <chr>                 <dbl>   <dbl>
 1 Crown Street, BR                  Bristol Attleboro: Attlebor…   41.9   -71.4
 2 Rutledge st., BR                  Bristol Attleboro: Attlebor…   41.9   -71.4
 3 Adamsdale Road & Siesta Drive, BR Bristol North Attleborough:…   41.9   -71.4
 4 Lee's Playground                  Bristol Attleboro: Attlebor…   41.9   -71.4
 5 Newport Avenue #960, BR           Bristol Attleboro: Attlebor…   41.9   -71.4
 6 66 Hillside Road, BR              Bristol North Attleborough:…   42.0   -71.3
 7 Ray Hodde st., BR                 Bristol Seekonk: Seekonk 02…   41.8   -71.3
 8 County Street #290, BR            Bristol Seekonk: Seekonk 02…   41.8   -71.3
 9 JL Dietsch Blvd, BR               Bristol North Attleborough:…   42.0   -71.3
10 Barneyville Road, BR              Bristol Swansea: Swansea 02…   41.8   -71.3
# ℹ 142 more rows
…
